{
  "log" : {
    "version" : "1.2",
    "pages" : [ ],
    "entries" : [ {
      "startedDateTime" : "2019-07-19T11:11:12.845Z",
      "request" : {
        "method" : "POST",
        "url" : "https://reqres.in/api/users",
        "httpVersion" : "",
        "cookies" : [ ],
        "headers" : [ {
          "name" : "Content-Type",
          "value" : "application/json"
        } ],
        "queryString" : [ ],
        "postData" : {
          "mimeType" : "application/json",
          "text" : "{\n    \"name\": \"Micheal Binh\",\n    \"job\": \"Automation Engineer\"\n}",
          "comment" : ""
        },
        "headersSize" : 0,
        "bodySize" : 0,
        "comment" : ""
      },
      "response" : {
        "status" : 201,
        "statusText" : "",
        "httpVersion" : "",
        "cookies" : [ ],
        "headers" : [ {
          "name" : null,
          "value" : "HTTP/1.1 201 Created"
        }, {
          "name" : "CF-RAY",
          "value" : "4f8c40dc4fa5335f-HKG"
        }, {
          "name" : "Server",
          "value" : "cloudflare"
        }, {
          "name" : "Access-Control-Allow-Origin",
          "value" : "*"
        }, {
          "name" : "Connection",
          "value" : "keep-alive"
        }, {
          "name" : "Date",
          "value" : "Fri, 19 Jul 2019 11:11:13 GMT"
        }, {
          "name" : "Via",
          "value" : "1.1 vegur"
        }, {
          "name" : "Etag",
          "value" : "W/\"65-M39JgIHHDxUbDIGbzjjavmTHVXo\""
        }, {
          "name" : "Set-Cookie",
          "value" : "__cfduid=d0539812f4675f6d8f10ea934e100889c1563534673; expires=Sat, 18-Jul-20 11:11:13 GMT; path=/; domain=.reqres.in; HttpOnly; Secure"
        }, {
          "name" : "Content-Length",
          "value" : "101"
        }, {
          "name" : "Expect-CT",
          "value" : "max-age=604800, report-uri=\"https://report-uri.cloudflare.com/cdn-cgi/beacon/expect-ct\""
        }, {
          "name" : "X-Powered-By",
          "value" : "Express"
        }, {
          "name" : "Content-Type",
          "value" : "application/json; charset=utf-8"
        } ],
        "content" : {
          "size" : 101,
          "mimeType" : "application/json; charset=utf-8",
          "text" : "{\"name\":\"Micheal Binh\",\"job\":\"Automation Engineer\",\"id\":\"648\",\"createdAt\":\"2019-07-19T11:11:13.689Z\"}",
          "comment" : ""
        },
        "redirectURL" : "",
        "headersSize" : 492,
        "bodySize" : 101,
        "comment" : ""
      },
      "cache" : { },
      "timings" : {
        "comment" : "",
        "ssl" : -1,
        "dns" : -1,
        "send" : 0,
        "blocked" : -1,
        "connect" : 1019,
        "wait" : 0,
        "receive" : 0
      },
      "comment" : "",
      "_katalonRequestInformation" : {
        "name" : "0",
        "testObjectId" : "Object Repository/User/CreateUser",
        "harId" : "672f8698-3941-4390-82b1-56617af27aa9"
      },
      "time" : 1019
    } ],
    "comment" : ""
  }
}