{
  "log" : {
    "version" : "1.2",
    "pages" : [ ],
    "entries" : [ {
      "startedDateTime" : "2019-07-21T14:12:27.769Z",
      "request" : {
        "method" : "POST",
        "url" : "https://reqres.in/api/users",
        "httpVersion" : "",
        "cookies" : [ ],
        "headers" : [ {
          "name" : "Content-Type",
          "value" : "application/json"
        } ],
        "queryString" : [ ],
        "postData" : {
          "mimeType" : "application/json",
          "text" : "{\n    \"name\": \"Chandra Dau\",\n    \"job\": \"QA Lead\"\n}",
          "comment" : ""
        },
        "headersSize" : 0,
        "bodySize" : 0,
        "comment" : ""
      },
      "response" : {
        "status" : 201,
        "statusText" : "",
        "httpVersion" : "",
        "cookies" : [ ],
        "headers" : [ {
          "name" : null,
          "value" : "HTTP/1.1 201 Created"
        }, {
          "name" : "CF-RAY",
          "value" : "4f9dc51b0f7ca33c-HKG"
        }, {
          "name" : "Server",
          "value" : "cloudflare"
        }, {
          "name" : "Access-Control-Allow-Origin",
          "value" : "*"
        }, {
          "name" : "Connection",
          "value" : "keep-alive"
        }, {
          "name" : "Date",
          "value" : "Sun, 21 Jul 2019 14:12:28 GMT"
        }, {
          "name" : "Via",
          "value" : "1.1 vegur"
        }, {
          "name" : "Etag",
          "value" : "W/\"58-OS0ZtyDw01l4GH+n6ZAEvjhwa0g\""
        }, {
          "name" : "Set-Cookie",
          "value" : "__cfduid=d5e8739246463623fad57c034e4a6f8931563718348; expires=Mon, 20-Jul-20 14:12:28 GMT; path=/; domain=.reqres.in; HttpOnly; Secure"
        }, {
          "name" : "Content-Length",
          "value" : "88"
        }, {
          "name" : "Expect-CT",
          "value" : "max-age=604800, report-uri=\"https://report-uri.cloudflare.com/cdn-cgi/beacon/expect-ct\""
        }, {
          "name" : "X-Powered-By",
          "value" : "Express"
        }, {
          "name" : "Content-Type",
          "value" : "application/json; charset=utf-8"
        } ],
        "content" : {
          "size" : 88,
          "mimeType" : "application/json; charset=utf-8",
          "text" : "{\"name\":\"Chandra Dau\",\"job\":\"QA Lead\",\"id\":\"308\",\"createdAt\":\"2019-07-21T14:12:28.378Z\"}",
          "comment" : ""
        },
        "redirectURL" : "",
        "headersSize" : 491,
        "bodySize" : 88,
        "comment" : ""
      },
      "cache" : { },
      "timings" : {
        "comment" : "",
        "connect" : 823,
        "ssl" : -1,
        "dns" : -1,
        "send" : 0,
        "blocked" : -1,
        "wait" : 0,
        "receive" : 0
      },
      "comment" : "",
      "_katalonRequestInformation" : {
        "name" : "1",
        "testObjectId" : "Object Repository/User/CreateUser",
        "harId" : "f2b3c9b8-5523-4ef9-9879-6c8ad57e389c"
      },
      "time" : 823
    } ],
    "comment" : ""
  }
}