[
  {
    "line": 2,
    "elements": [
      {
        "line": 14,
        "name": "Create user successfully",
        "description": "",
        "id": "create-user;create-user-successfully;;2",
        "type": "scenario",
        "keyword": "Scenario Outline",
        "steps": [
          {
            "result": {
              "duration": 6157193,
              "status": "passed"
            },
            "line": 7,
            "name": "I want to create a new user with \u0027Micheal Binh\u0027 and \u0027Automation Engineer\u0027",
            "match": {
              "arguments": [
                {
                  "val": "Micheal Binh",
                  "offset": 34
                },
                {
                  "val": "Automation Engineer",
                  "offset": 53
                }
              ],
              "location": "CreateSteps.I_want_to_write_a_step_with_name(String,String)"
            },
            "keyword": "Given "
          },
          {
            "result": {
              "duration": 381400,
              "status": "passed"
            },
            "line": 8,
            "name": "I make a POST request",
            "match": {
              "location": "CreateSteps.make_a_post_request()"
            },
            "keyword": "When "
          },
          {
            "result": {
              "duration": 334964,
              "status": "passed"
            },
            "line": 9,
            "name": "I get a 201 response",
            "match": {
              "location": "CreateSteps.verify_the_status_code()"
            },
            "keyword": "Then "
          },
          {
            "result": {
              "duration": 424214,
              "status": "passed"
            },
            "line": 10,
            "name": "I verify the created data with \u0027Micheal Binh\u0027 and \u0027Automation Engineer\u0027",
            "match": {
              "arguments": [
                {
                  "val": "Micheal Binh",
                  "offset": 32
                },
                {
                  "val": "Automation Engineer",
                  "offset": 51
                }
              ],
              "location": "CreateSteps.verify_created_data(String,String)"
            },
            "keyword": "And "
          }
        ],
        "tags": [
          {
            "name": "@tag"
          },
          {
            "name": "@tag1"
          }
        ]
      },
      {
        "line": 15,
        "name": "Create user successfully",
        "description": "",
        "id": "create-user;create-user-successfully;;3",
        "type": "scenario",
        "keyword": "Scenario Outline",
        "steps": [
          {
            "result": {
              "duration": 636875,
              "status": "passed"
            },
            "line": 7,
            "name": "I want to create a new user with \u0027Chandra Dau\u0027 and \u0027QA Lead\u0027",
            "match": {
              "arguments": [
                {
                  "val": "Chandra Dau",
                  "offset": 34
                },
                {
                  "val": "QA Lead",
                  "offset": 52
                }
              ],
              "location": "CreateSteps.I_want_to_write_a_step_with_name(String,String)"
            },
            "keyword": "Given "
          },
          {
            "result": {
              "duration": 595990,
              "status": "passed"
            },
            "line": 8,
            "name": "I make a POST request",
            "match": {
              "location": "CreateSteps.make_a_post_request()"
            },
            "keyword": "When "
          },
          {
            "result": {
              "duration": 476825,
              "status": "passed"
            },
            "line": 9,
            "name": "I get a 201 response",
            "match": {
              "location": "CreateSteps.verify_the_status_code()"
            },
            "keyword": "Then "
          },
          {
            "result": {
              "duration": 588794,
              "status": "passed"
            },
            "line": 10,
            "name": "I verify the created data with \u0027Chandra Dau\u0027 and \u0027QA Lead\u0027",
            "match": {
              "arguments": [
                {
                  "val": "Chandra Dau",
                  "offset": 32
                },
                {
                  "val": "QA Lead",
                  "offset": 50
                }
              ],
              "location": "CreateSteps.verify_created_data(String,String)"
            },
            "keyword": "And "
          }
        ],
        "tags": [
          {
            "name": "@tag"
          },
          {
            "name": "@tag1"
          }
        ]
      }
    ],
    "name": "Create user",
    "description": "  I want to create new user",
    "id": "create-user",
    "keyword": "Feature",
    "uri": "/Users/huybinh.nguyen/Katalon Studio/poc-api/Include/features/User Manager/create_user.feature",
    "tags": [
      {
        "name": "@tag",
        "type": "Tag",
        "location": {
          "line": 1,
          "column": 1
        }
      }
    ]
  }
]